ISO-10303-21;
HEADER;
FILE_DESCRIPTION(('CATIA V5 STEP Exchange'),'2;1');

FILE_NAME('E:\\Academics\\MS\\2nd Sem\\AE498SDO\\Homework\\Final_Project\\Git\\ae498\\combr\\combr.stp','2020-04-30T03:09:13+00:00',('none'),('none'),'CATIA Version 5 Release 17 (IN-10)','CATIA V5 STEP AP203','none');

FILE_SCHEMA(('CONFIG_CONTROL_DESIGN'));

ENDSEC;
/* file written by CATIA V5R17 */
DATA;
#5=PRODUCT('Part1','','',(#2)) ;
#1=APPLICATION_CONTEXT('configuration controlled 3D design of mechanical parts and assemblies') ;
#14=PRODUCT_DEFINITION(' ',' ',#6,#3) ;
#16=SECURITY_CLASSIFICATION(' ',' ',#15) ;
#15=SECURITY_CLASSIFICATION_LEVEL('unclassified') ;
#47=CARTESIAN_POINT(' ',(0.,0.,0.)) ;
#52=CARTESIAN_POINT('Axis2P3D Location',(0.,0.,8.)) ;
#57=CARTESIAN_POINT('Line Origine',(174.,70.,8.)) ;
#61=CARTESIAN_POINT('Vertex',(133.,70.,8.)) ;
#63=CARTESIAN_POINT('Vertex',(215.,70.,8.)) ;
#66=CARTESIAN_POINT('Line Origine',(133.,35.,8.)) ;
#70=CARTESIAN_POINT('Vertex',(133.,-1.16157083951E-014,8.)) ;
#73=CARTESIAN_POINT('Line Origine',(174.,-1.67366120962E-014,8.)) ;
#77=CARTESIAN_POINT('Vertex',(215.,0.,8.)) ;
#80=CARTESIAN_POINT('Line Origine',(215.,35.,8.)) ;
#91=CARTESIAN_POINT('Axis2P3D Location',(175.,50.,8.)) ;
#95=CARTESIAN_POINT('Vertex',(168.,50.,8.)) ;
#97=CARTESIAN_POINT('Vertex',(182.,50.,8.)) ;
#100=CARTESIAN_POINT('Axis2P3D Location',(175.,50.,8.)) ;
#109=CARTESIAN_POINT('Axis2P3D Location',(175.,20.,8.)) ;
#113=CARTESIAN_POINT('Vertex',(168.,20.,8.)) ;
#115=CARTESIAN_POINT('Vertex',(182.,20.,8.)) ;
#118=CARTESIAN_POINT('Axis2P3D Location',(175.,20.,8.)) ;
#128=CARTESIAN_POINT('Axis2P3D Location',(215.,70.,0.)) ;
#133=CARTESIAN_POINT('Line Origine',(215.,70.,4.)) ;
#137=CARTESIAN_POINT('Vertex',(215.,70.,0.)) ;
#140=CARTESIAN_POINT('Line Origine',(174.,70.,0.)) ;
#144=CARTESIAN_POINT('Vertex',(133.,70.,0.)) ;
#147=CARTESIAN_POINT('Line Origine',(133.,70.,4.)) ;
#159=CARTESIAN_POINT('Axis2P3D Location',(175.,50.,4.)) ;
#164=CARTESIAN_POINT('Line Origine',(182.,50.,4.)) ;
#168=CARTESIAN_POINT('Vertex',(182.,50.,0.)) ;
#171=CARTESIAN_POINT('Axis2P3D Location',(175.,50.,0.)) ;
#175=CARTESIAN_POINT('Vertex',(168.,50.,0.)) ;
#178=CARTESIAN_POINT('Line Origine',(168.,50.,4.)) ;
#190=CARTESIAN_POINT('Axis2P3D Location',(175.,50.,0.)) ;
#202=CARTESIAN_POINT('Axis2P3D Location',(175.,20.,4.)) ;
#207=CARTESIAN_POINT('Line Origine',(182.,20.,4.)) ;
#211=CARTESIAN_POINT('Vertex',(182.,20.,0.)) ;
#214=CARTESIAN_POINT('Axis2P3D Location',(175.,20.,0.)) ;
#218=CARTESIAN_POINT('Vertex',(168.,20.,0.)) ;
#221=CARTESIAN_POINT('Line Origine',(168.,20.,4.)) ;
#233=CARTESIAN_POINT('Axis2P3D Location',(175.,20.,0.)) ;
#245=CARTESIAN_POINT('Line Origine',(49.,70.,8.)) ;
#249=CARTESIAN_POINT('Vertex',(8.,70.,8.)) ;
#251=CARTESIAN_POINT('Vertex',(90.,70.,8.)) ;
#254=CARTESIAN_POINT('Line Origine',(90.,70.,4.)) ;
#258=CARTESIAN_POINT('Vertex',(90.,70.,0.)) ;
#261=CARTESIAN_POINT('Line Origine',(49.,70.,0.)) ;
#265=CARTESIAN_POINT('Vertex',(8.,70.,0.)) ;
#268=CARTESIAN_POINT('Line Origine',(8.,70.,4.)) ;
#280=CARTESIAN_POINT('Line Origine',(8.,35.,8.)) ;
#284=CARTESIAN_POINT('Vertex',(8.,0.,8.)) ;
#287=CARTESIAN_POINT('Line Origine',(49.,0.,8.)) ;
#291=CARTESIAN_POINT('Vertex',(90.,-1.42108547152E-014,8.)) ;
#294=CARTESIAN_POINT('Line Origine',(90.,35.,8.)) ;
#305=CARTESIAN_POINT('Axis2P3D Location',(48.,50.,8.)) ;
#309=CARTESIAN_POINT('Vertex',(55.,50.,8.)) ;
#311=CARTESIAN_POINT('Vertex',(41.,50.,8.)) ;
#314=CARTESIAN_POINT('Axis2P3D Location',(48.,50.,8.)) ;
#323=CARTESIAN_POINT('Axis2P3D Location',(48.,20.,8.)) ;
#327=CARTESIAN_POINT('Vertex',(55.,20.,8.)) ;
#329=CARTESIAN_POINT('Vertex',(41.,20.,8.)) ;
#332=CARTESIAN_POINT('Axis2P3D Location',(48.,20.,8.)) ;
#342=CARTESIAN_POINT('Axis2P3D Location',(48.,50.,4.)) ;
#347=CARTESIAN_POINT('Line Origine',(41.,50.,4.)) ;
#351=CARTESIAN_POINT('Vertex',(41.,50.,0.)) ;
#354=CARTESIAN_POINT('Axis2P3D Location',(48.,50.,0.)) ;
#358=CARTESIAN_POINT('Vertex',(55.,50.,0.)) ;
#361=CARTESIAN_POINT('Line Origine',(55.,50.,4.)) ;
#373=CARTESIAN_POINT('Axis2P3D Location',(48.,50.,0.)) ;
#385=CARTESIAN_POINT('Axis2P3D Location',(48.,20.,4.)) ;
#390=CARTESIAN_POINT('Line Origine',(41.,20.,4.)) ;
#394=CARTESIAN_POINT('Vertex',(41.,20.,0.)) ;
#397=CARTESIAN_POINT('Axis2P3D Location',(48.,20.,0.)) ;
#401=CARTESIAN_POINT('Vertex',(55.,20.,0.)) ;
#404=CARTESIAN_POINT('Line Origine',(55.,20.,4.)) ;
#416=CARTESIAN_POINT('Axis2P3D Location',(48.,20.,0.)) ;
#428=CARTESIAN_POINT('Axis2P3D Location',(0.,0.,92.)) ;
#433=CARTESIAN_POINT('Line Origine',(111.5,100.,92.)) ;
#437=CARTESIAN_POINT('Vertex',(215.,100.,92.)) ;
#439=CARTESIAN_POINT('Vertex',(8.,100.,92.)) ;
#442=CARTESIAN_POINT('Line Origine',(215.,50.,92.)) ;
#446=CARTESIAN_POINT('Vertex',(215.,0.,92.)) ;
#449=CARTESIAN_POINT('Line Origine',(111.5,0.,92.)) ;
#453=CARTESIAN_POINT('Vertex',(8.,0.,92.)) ;
#456=CARTESIAN_POINT('Line Origine',(8.,50.,92.)) ;
#468=CARTESIAN_POINT('Axis2P3D Location',(8.,0.,0.)) ;
#473=CARTESIAN_POINT('Line Origine',(8.,172.5,0.)) ;
#477=CARTESIAN_POINT('Vertex',(8.,275.,0.)) ;
#480=CARTESIAN_POINT('Line Origine',(8.,275.,50.)) ;
#484=CARTESIAN_POINT('Vertex',(8.,275.,100.)) ;
#487=CARTESIAN_POINT('Line Origine',(8.,187.5,100.)) ;
#491=CARTESIAN_POINT('Vertex',(8.,100.,100.)) ;
#494=CARTESIAN_POINT('Line Origine',(8.,100.,96.)) ;
#499=CARTESIAN_POINT('Line Origine',(8.,0.,50.)) ;
#514=CARTESIAN_POINT('Axis2P3D Location',(8.,200.,50.)) ;
#518=CARTESIAN_POINT('Vertex',(8.,225.,50.)) ;
#520=CARTESIAN_POINT('Vertex',(8.,175.,50.)) ;
#523=CARTESIAN_POINT('Axis2P3D Location',(8.,200.,50.)) ;
#533=CARTESIAN_POINT('Axis2P3D Location',(215.,0.,0.)) ;
#539=CARTESIAN_POINT('Control Point',(215.,0.,92.)) ;
#540=CARTESIAN_POINT('Control Point',(215.,0.,8.)) ;
#542=CARTESIAN_POINT('Line Origine',(215.,100.,96.)) ;
#546=CARTESIAN_POINT('Vertex',(215.,100.,100.)) ;
#550=CARTESIAN_POINT('Control Point',(215.,275.,100.)) ;
#551=CARTESIAN_POINT('Control Point',(215.,100.,100.)) ;
#552=CARTESIAN_POINT('Vertex',(215.,275.,100.)) ;
#556=CARTESIAN_POINT('Control Point',(215.,275.,0.)) ;
#557=CARTESIAN_POINT('Control Point',(215.,275.,100.)) ;
#558=CARTESIAN_POINT('Vertex',(215.,275.,0.)) ;
#562=CARTESIAN_POINT('Control Point',(215.,70.,0.)) ;
#563=CARTESIAN_POINT('Control Point',(215.,275.,0.)) ;
#575=CARTESIAN_POINT('Axis2P3D Location',(215.,200.,50.)) ;
#579=CARTESIAN_POINT('Vertex',(215.,175.,50.)) ;
#581=CARTESIAN_POINT('Vertex',(215.,225.,50.)) ;
#584=CARTESIAN_POINT('Axis2P3D Location',(215.,200.,50.)) ;
#594=CARTESIAN_POINT('Axis2P3D Location',(8.,100.,100.)) ;
#599=CARTESIAN_POINT('Line Origine',(111.5,100.,100.)) ;
#611=CARTESIAN_POINT('Axis2P3D Location',(0.,275.,0.)) ;
#616=CARTESIAN_POINT('Line Origine',(4.,275.,0.)) ;
#620=CARTESIAN_POINT('Vertex',(0.,275.,0.)) ;
#623=CARTESIAN_POINT('Line Origine',(0.,275.,50.)) ;
#627=CARTESIAN_POINT('Vertex',(0.,275.,100.)) ;
#630=CARTESIAN_POINT('Line Origine',(4.,275.,100.)) ;
#642=CARTESIAN_POINT('Axis2P3D Location',(0.,275.,100.)) ;
#647=CARTESIAN_POINT('Line Origine',(111.5,0.,100.)) ;
#651=CARTESIAN_POINT('Vertex',(0.,0.,100.)) ;
#653=CARTESIAN_POINT('Vertex',(223.,0.,100.)) ;
#656=CARTESIAN_POINT('Line Origine',(223.,137.5,100.)) ;
#660=CARTESIAN_POINT('Vertex',(223.,275.,100.)) ;
#663=CARTESIAN_POINT('Line Origine',(219.,275.,100.)) ;
#668=CARTESIAN_POINT('Line Origine',(0.,137.5,100.)) ;
#684=CARTESIAN_POINT('Axis2P3D Location',(0.,200.,50.)) ;
#689=CARTESIAN_POINT('Line Origine',(0.,175.,50.)) ;
#693=CARTESIAN_POINT('Vertex',(0.,175.,50.)) ;
#696=CARTESIAN_POINT('Axis2P3D Location',(0.,200.,50.)) ;
#700=CARTESIAN_POINT('Vertex',(0.,225.,50.)) ;
#703=CARTESIAN_POINT('Line Origine',(0.,225.,50.)) ;
#715=CARTESIAN_POINT('Axis2P3D Location',(0.,200.,50.)) ;
#727=CARTESIAN_POINT('Line Origine',(223.,275.,50.)) ;
#731=CARTESIAN_POINT('Vertex',(223.,275.,0.)) ;
#734=CARTESIAN_POINT('Line Origine',(219.,275.,0.)) ;
#746=CARTESIAN_POINT('Line Origine',(0.,225.,50.)) ;
#750=CARTESIAN_POINT('Vertex',(223.,225.,50.)) ;
#753=CARTESIAN_POINT('Axis2P3D Location',(223.,200.,50.)) ;
#757=CARTESIAN_POINT('Vertex',(223.,175.,50.)) ;
#760=CARTESIAN_POINT('Line Origine',(0.,175.,50.)) ;
#772=CARTESIAN_POINT('Axis2P3D Location',(223.,200.,50.)) ;
#784=CARTESIAN_POINT('Axis2P3D Location',(0.,0.,0.)) ;
#789=CARTESIAN_POINT('Line Origine',(90.,35.,0.)) ;
#793=CARTESIAN_POINT('Vertex',(90.,-1.42108547152E-014,0.)) ;
#796=CARTESIAN_POINT('Line Origine',(45.,0.,0.)) ;
#800=CARTESIAN_POINT('Vertex',(0.,0.,0.)) ;
#803=CARTESIAN_POINT('Line Origine',(0.,137.5,0.)) ;
#825=CARTESIAN_POINT('Axis2P3D Location',(0.,0.,100.)) ;
#830=CARTESIAN_POINT('Line Origine',(133.,0.,4.)) ;
#834=CARTESIAN_POINT('Vertex',(133.,0.,0.)) ;
#837=CARTESIAN_POINT('Line Origine',(178.,0.,0.)) ;
#841=CARTESIAN_POINT('Vertex',(223.,0.,0.)) ;
#844=CARTESIAN_POINT('Line Origine',(223.,0.,50.)) ;
#849=CARTESIAN_POINT('Line Origine',(0.,0.,50.)) ;
#854=CARTESIAN_POINT('Line Origine',(90.,0.,4.)) ;
#874=CARTESIAN_POINT('Line Origine',(133.,35.,0.)) ;
#879=CARTESIAN_POINT('Line Origine',(223.,137.5,0.)) ;
#901=CARTESIAN_POINT('Axis2P3D Location',(133.,1.42108547152E-014,0.)) ;
#913=CARTESIAN_POINT('Axis2P3D Location',(90.,-1.42108547152E-014,0.)) ;
#925=CARTESIAN_POINT('Axis2P3D Location',(0.,0.,0.)) ;
#941=CARTESIAN_POINT('Axis2P3D Location',(223.,0.,0.)) ;
#53=DIRECTION('Axis2P3D Direction',(0.,0.,-1.)) ;
#54=DIRECTION('Axis2P3D XDirection',(-1.,0.,0.)) ;
#58=DIRECTION('Vector Direction',(-1.,0.,0.)) ;
#67=DIRECTION('Vector Direction',(0.,1.,0.)) ;
#74=DIRECTION('Vector Direction',(1.,-1.2490009027E-016,0.)) ;
#81=DIRECTION('Vector Direction',(0.,-1.,0.)) ;
#92=DIRECTION('Axis2P3D Direction',(0.,0.,-1.)) ;
#101=DIRECTION('Axis2P3D Direction',(0.,0.,-1.)) ;
#110=DIRECTION('Axis2P3D Direction',(0.,0.,-1.)) ;
#119=DIRECTION('Axis2P3D Direction',(0.,0.,-1.)) ;
#129=DIRECTION('Axis2P3D Direction',(0.,1.,0.)) ;
#130=DIRECTION('Axis2P3D XDirection',(-1.,0.,0.)) ;
#134=DIRECTION('Vector Direction',(0.,0.,1.)) ;
#141=DIRECTION('Vector Direction',(-1.,0.,0.)) ;
#148=DIRECTION('Vector Direction',(0.,0.,1.)) ;
#160=DIRECTION('Axis2P3D Direction',(0.,0.,-1.)) ;
#161=DIRECTION('Axis2P3D XDirection',(-1.,0.,0.)) ;
#165=DIRECTION('Vector Direction',(0.,0.,-1.)) ;
#172=DIRECTION('Axis2P3D Direction',(0.,0.,-1.)) ;
#179=DIRECTION('Vector Direction',(0.,0.,-1.)) ;
#191=DIRECTION('Axis2P3D Direction',(0.,0.,-1.)) ;
#203=DIRECTION('Axis2P3D Direction',(0.,0.,-1.)) ;
#204=DIRECTION('Axis2P3D XDirection',(-1.,0.,0.)) ;
#208=DIRECTION('Vector Direction',(0.,0.,-1.)) ;
#215=DIRECTION('Axis2P3D Direction',(0.,0.,-1.)) ;
#222=DIRECTION('Vector Direction',(0.,0.,-1.)) ;
#234=DIRECTION('Axis2P3D Direction',(0.,0.,-1.)) ;
#246=DIRECTION('Vector Direction',(-1.,0.,0.)) ;
#255=DIRECTION('Vector Direction',(0.,0.,1.)) ;
#262=DIRECTION('Vector Direction',(-1.,0.,0.)) ;
#269=DIRECTION('Vector Direction',(0.,0.,1.)) ;
#281=DIRECTION('Vector Direction',(0.,1.,0.)) ;
#288=DIRECTION('Vector Direction',(1.,0.,0.)) ;
#295=DIRECTION('Vector Direction',(0.,1.,0.)) ;
#306=DIRECTION('Axis2P3D Direction',(0.,0.,-1.)) ;
#315=DIRECTION('Axis2P3D Direction',(0.,0.,-1.)) ;
#324=DIRECTION('Axis2P3D Direction',(0.,0.,-1.)) ;
#333=DIRECTION('Axis2P3D Direction',(0.,0.,-1.)) ;
#343=DIRECTION('Axis2P3D Direction',(0.,0.,-1.)) ;
#344=DIRECTION('Axis2P3D XDirection',(1.,1.22460635382E-016,0.)) ;
#348=DIRECTION('Vector Direction',(0.,0.,-1.)) ;
#355=DIRECTION('Axis2P3D Direction',(0.,0.,-1.)) ;
#362=DIRECTION('Vector Direction',(0.,0.,-1.)) ;
#374=DIRECTION('Axis2P3D Direction',(0.,0.,-1.)) ;
#386=DIRECTION('Axis2P3D Direction',(0.,0.,-1.)) ;
#387=DIRECTION('Axis2P3D XDirection',(1.,1.22460635382E-016,0.)) ;
#391=DIRECTION('Vector Direction',(0.,0.,-1.)) ;
#398=DIRECTION('Axis2P3D Direction',(0.,0.,-1.)) ;
#405=DIRECTION('Vector Direction',(0.,0.,-1.)) ;
#417=DIRECTION('Axis2P3D Direction',(0.,0.,-1.)) ;
#429=DIRECTION('Axis2P3D Direction',(0.,0.,1.)) ;
#430=DIRECTION('Axis2P3D XDirection',(1.,0.,0.)) ;
#434=DIRECTION('Vector Direction',(1.,0.,0.)) ;
#443=DIRECTION('Vector Direction',(0.,1.,0.)) ;
#450=DIRECTION('Vector Direction',(-1.,0.,0.)) ;
#457=DIRECTION('Vector Direction',(0.,-1.,0.)) ;
#469=DIRECTION('Axis2P3D Direction',(1.,0.,0.)) ;
#470=DIRECTION('Axis2P3D XDirection',(0.,1.,0.)) ;
#474=DIRECTION('Vector Direction',(0.,1.,0.)) ;
#481=DIRECTION('Vector Direction',(0.,0.,1.)) ;
#488=DIRECTION('Vector Direction',(0.,-1.,0.)) ;
#495=DIRECTION('Vector Direction',(0.,0.,-1.)) ;
#500=DIRECTION('Vector Direction',(0.,0.,-1.)) ;
#515=DIRECTION('Axis2P3D Direction',(1.,0.,0.)) ;
#524=DIRECTION('Axis2P3D Direction',(1.,0.,0.)) ;
#534=DIRECTION('Axis2P3D Direction',(-1.,0.,0.)) ;
#535=DIRECTION('Axis2P3D XDirection',(0.,-1.,0.)) ;
#543=DIRECTION('Vector Direction',(0.,0.,-1.)) ;
#576=DIRECTION('Axis2P3D Direction',(-1.,0.,0.)) ;
#585=DIRECTION('Axis2P3D Direction',(-1.,0.,0.)) ;
#595=DIRECTION('Axis2P3D Direction',(0.,1.,0.)) ;
#596=DIRECTION('Axis2P3D XDirection',(1.,0.,0.)) ;
#600=DIRECTION('Vector Direction',(1.,0.,0.)) ;
#612=DIRECTION('Axis2P3D Direction',(0.,1.,0.)) ;
#613=DIRECTION('Axis2P3D XDirection',(0.,0.,1.)) ;
#617=DIRECTION('Vector Direction',(1.,0.,0.)) ;
#624=DIRECTION('Vector Direction',(0.,0.,1.)) ;
#631=DIRECTION('Vector Direction',(1.,0.,0.)) ;
#643=DIRECTION('Axis2P3D Direction',(0.,0.,1.)) ;
#644=DIRECTION('Axis2P3D XDirection',(0.,-1.,0.)) ;
#648=DIRECTION('Vector Direction',(1.,0.,0.)) ;
#657=DIRECTION('Vector Direction',(0.,-1.,0.)) ;
#664=DIRECTION('Vector Direction',(-1.,0.,0.)) ;
#669=DIRECTION('Vector Direction',(0.,-1.,0.)) ;
#685=DIRECTION('Axis2P3D Direction',(-1.,0.,0.)) ;
#686=DIRECTION('Axis2P3D XDirection',(0.,-1.,0.)) ;
#690=DIRECTION('Vector Direction',(-1.,0.,0.)) ;
#697=DIRECTION('Axis2P3D Direction',(-1.,0.,0.)) ;
#704=DIRECTION('Vector Direction',(-1.,0.,0.)) ;
#716=DIRECTION('Axis2P3D Direction',(-1.,0.,0.)) ;
#728=DIRECTION('Vector Direction',(0.,0.,1.)) ;
#735=DIRECTION('Vector Direction',(-1.,0.,0.)) ;
#747=DIRECTION('Vector Direction',(-1.,0.,0.)) ;
#754=DIRECTION('Axis2P3D Direction',(-1.,0.,0.)) ;
#761=DIRECTION('Vector Direction',(-1.,0.,0.)) ;
#773=DIRECTION('Axis2P3D Direction',(-1.,0.,0.)) ;
#785=DIRECTION('Axis2P3D Direction',(0.,0.,-1.)) ;
#786=DIRECTION('Axis2P3D XDirection',(0.,1.,0.)) ;
#790=DIRECTION('Vector Direction',(0.,1.,0.)) ;
#797=DIRECTION('Vector Direction',(1.,0.,0.)) ;
#804=DIRECTION('Vector Direction',(0.,1.,0.)) ;
#826=DIRECTION('Axis2P3D Direction',(0.,-1.,0.)) ;
#827=DIRECTION('Axis2P3D XDirection',(0.,0.,-1.)) ;
#831=DIRECTION('Vector Direction',(0.,0.,1.)) ;
#838=DIRECTION('Vector Direction',(-1.,0.,0.)) ;
#845=DIRECTION('Vector Direction',(0.,0.,-1.)) ;
#850=DIRECTION('Vector Direction',(0.,0.,-1.)) ;
#855=DIRECTION('Vector Direction',(0.,0.,1.)) ;
#875=DIRECTION('Vector Direction',(0.,1.,0.)) ;
#880=DIRECTION('Vector Direction',(0.,1.,0.)) ;
#902=DIRECTION('Axis2P3D Direction',(1.,0.,0.)) ;
#903=DIRECTION('Axis2P3D XDirection',(0.,1.,0.)) ;
#914=DIRECTION('Axis2P3D Direction',(1.,0.,0.)) ;
#915=DIRECTION('Axis2P3D XDirection',(0.,1.,0.)) ;
#926=DIRECTION('Axis2P3D Direction',(1.,0.,0.)) ;
#927=DIRECTION('Axis2P3D XDirection',(0.,1.,0.)) ;
#942=DIRECTION('Axis2P3D Direction',(-1.,0.,0.)) ;
#943=DIRECTION('Axis2P3D XDirection',(0.,-1.,0.)) ;
#48=AXIS2_PLACEMENT_3D(' ',#47,$,$) ;
#55=AXIS2_PLACEMENT_3D('Plane Axis2P3D',#52,#53,#54) ;
#93=AXIS2_PLACEMENT_3D('Circle Axis2P3D',#91,#92,$) ;
#102=AXIS2_PLACEMENT_3D('Circle Axis2P3D',#100,#101,$) ;
#111=AXIS2_PLACEMENT_3D('Circle Axis2P3D',#109,#110,$) ;
#120=AXIS2_PLACEMENT_3D('Circle Axis2P3D',#118,#119,$) ;
#131=AXIS2_PLACEMENT_3D('Plane Axis2P3D',#128,#129,#130) ;
#162=AXIS2_PLACEMENT_3D('Cylinder Axis2P3D',#159,#160,#161) ;
#173=AXIS2_PLACEMENT_3D('Circle Axis2P3D',#171,#172,$) ;
#192=AXIS2_PLACEMENT_3D('Circle Axis2P3D',#190,#191,$) ;
#205=AXIS2_PLACEMENT_3D('Cylinder Axis2P3D',#202,#203,#204) ;
#216=AXIS2_PLACEMENT_3D('Circle Axis2P3D',#214,#215,$) ;
#235=AXIS2_PLACEMENT_3D('Circle Axis2P3D',#233,#234,$) ;
#307=AXIS2_PLACEMENT_3D('Circle Axis2P3D',#305,#306,$) ;
#316=AXIS2_PLACEMENT_3D('Circle Axis2P3D',#314,#315,$) ;
#325=AXIS2_PLACEMENT_3D('Circle Axis2P3D',#323,#324,$) ;
#334=AXIS2_PLACEMENT_3D('Circle Axis2P3D',#332,#333,$) ;
#345=AXIS2_PLACEMENT_3D('Cylinder Axis2P3D',#342,#343,#344) ;
#356=AXIS2_PLACEMENT_3D('Circle Axis2P3D',#354,#355,$) ;
#375=AXIS2_PLACEMENT_3D('Circle Axis2P3D',#373,#374,$) ;
#388=AXIS2_PLACEMENT_3D('Cylinder Axis2P3D',#385,#386,#387) ;
#399=AXIS2_PLACEMENT_3D('Circle Axis2P3D',#397,#398,$) ;
#418=AXIS2_PLACEMENT_3D('Circle Axis2P3D',#416,#417,$) ;
#431=AXIS2_PLACEMENT_3D('Plane Axis2P3D',#428,#429,#430) ;
#471=AXIS2_PLACEMENT_3D('Plane Axis2P3D',#468,#469,#470) ;
#516=AXIS2_PLACEMENT_3D('Circle Axis2P3D',#514,#515,$) ;
#525=AXIS2_PLACEMENT_3D('Circle Axis2P3D',#523,#524,$) ;
#536=AXIS2_PLACEMENT_3D('Plane Axis2P3D',#533,#534,#535) ;
#577=AXIS2_PLACEMENT_3D('Circle Axis2P3D',#575,#576,$) ;
#586=AXIS2_PLACEMENT_3D('Circle Axis2P3D',#584,#585,$) ;
#597=AXIS2_PLACEMENT_3D('Plane Axis2P3D',#594,#595,#596) ;
#614=AXIS2_PLACEMENT_3D('Plane Axis2P3D',#611,#612,#613) ;
#645=AXIS2_PLACEMENT_3D('Plane Axis2P3D',#642,#643,#644) ;
#687=AXIS2_PLACEMENT_3D('Cylinder Axis2P3D',#684,#685,#686) ;
#698=AXIS2_PLACEMENT_3D('Circle Axis2P3D',#696,#697,$) ;
#717=AXIS2_PLACEMENT_3D('Circle Axis2P3D',#715,#716,$) ;
#755=AXIS2_PLACEMENT_3D('Circle Axis2P3D',#753,#754,$) ;
#774=AXIS2_PLACEMENT_3D('Circle Axis2P3D',#772,#773,$) ;
#787=AXIS2_PLACEMENT_3D('Plane Axis2P3D',#784,#785,#786) ;
#828=AXIS2_PLACEMENT_3D('Plane Axis2P3D',#825,#826,#827) ;
#904=AXIS2_PLACEMENT_3D('Plane Axis2P3D',#901,#902,#903) ;
#916=AXIS2_PLACEMENT_3D('Plane Axis2P3D',#913,#914,#915) ;
#928=AXIS2_PLACEMENT_3D('Plane Axis2P3D',#925,#926,#927) ;
#944=AXIS2_PLACEMENT_3D('Plane Axis2P3D',#941,#942,#943) ;
#40=PRODUCT_DEFINITION_SHAPE(' ',' ',#14) ;
#31=APPROVAL_PERSON_ORGANIZATION(#25,#21,#19) ;
#25=PERSON_AND_ORGANIZATION(#22,#23) ;
#22=PERSON(' ',' ',' ',$,$,$) ;
#23=ORGANIZATION(' ',' ',' ') ;
#21=APPROVAL(#20,' ') ;
#20=APPROVAL_STATUS('not_yet_approved') ;
#19=APPROVAL_ROLE('APPROVER') ;
#13=DATE_AND_TIME(#11,#12) ;
#12=LOCAL_TIME(22,9,12.,#10) ;
#10=COORDINATED_UNIVERSAL_TIME_OFFSET(0,0,.AHEAD.) ;
#86=ORIENTED_EDGE('',*,*,#65,.F.) ;
#87=ORIENTED_EDGE('',*,*,#72,.F.) ;
#88=ORIENTED_EDGE('',*,*,#79,.F.) ;
#89=ORIENTED_EDGE('',*,*,#84,.F.) ;
#106=ORIENTED_EDGE('',*,*,#99,.T.) ;
#107=ORIENTED_EDGE('',*,*,#104,.T.) ;
#124=ORIENTED_EDGE('',*,*,#117,.T.) ;
#125=ORIENTED_EDGE('',*,*,#122,.T.) ;
#153=ORIENTED_EDGE('',*,*,#65,.T.) ;
#154=ORIENTED_EDGE('',*,*,#139,.F.) ;
#155=ORIENTED_EDGE('',*,*,#146,.F.) ;
#156=ORIENTED_EDGE('',*,*,#151,.T.) ;
#184=ORIENTED_EDGE('',*,*,#170,.F.) ;
#185=ORIENTED_EDGE('',*,*,#177,.T.) ;
#186=ORIENTED_EDGE('',*,*,#182,.T.) ;
#187=ORIENTED_EDGE('',*,*,#104,.F.) ;
#196=ORIENTED_EDGE('',*,*,#182,.F.) ;
#197=ORIENTED_EDGE('',*,*,#194,.T.) ;
#198=ORIENTED_EDGE('',*,*,#170,.T.) ;
#199=ORIENTED_EDGE('',*,*,#99,.F.) ;
#227=ORIENTED_EDGE('',*,*,#213,.F.) ;
#228=ORIENTED_EDGE('',*,*,#220,.T.) ;
#229=ORIENTED_EDGE('',*,*,#225,.T.) ;
#230=ORIENTED_EDGE('',*,*,#122,.F.) ;
#239=ORIENTED_EDGE('',*,*,#225,.F.) ;
#240=ORIENTED_EDGE('',*,*,#237,.T.) ;
#241=ORIENTED_EDGE('',*,*,#213,.T.) ;
#242=ORIENTED_EDGE('',*,*,#117,.F.) ;
#274=ORIENTED_EDGE('',*,*,#253,.T.) ;
#275=ORIENTED_EDGE('',*,*,#260,.F.) ;
#276=ORIENTED_EDGE('',*,*,#267,.F.) ;
#277=ORIENTED_EDGE('',*,*,#272,.T.) ;
#300=ORIENTED_EDGE('',*,*,#286,.F.) ;
#301=ORIENTED_EDGE('',*,*,#293,.F.) ;
#302=ORIENTED_EDGE('',*,*,#298,.F.) ;
#303=ORIENTED_EDGE('',*,*,#253,.F.) ;
#320=ORIENTED_EDGE('',*,*,#313,.T.) ;
#321=ORIENTED_EDGE('',*,*,#318,.T.) ;
#338=ORIENTED_EDGE('',*,*,#331,.T.) ;
#339=ORIENTED_EDGE('',*,*,#336,.T.) ;
#367=ORIENTED_EDGE('',*,*,#353,.F.) ;
#368=ORIENTED_EDGE('',*,*,#360,.T.) ;
#369=ORIENTED_EDGE('',*,*,#365,.T.) ;
#370=ORIENTED_EDGE('',*,*,#318,.F.) ;
#379=ORIENTED_EDGE('',*,*,#365,.F.) ;
#380=ORIENTED_EDGE('',*,*,#377,.T.) ;
#381=ORIENTED_EDGE('',*,*,#353,.T.) ;
#382=ORIENTED_EDGE('',*,*,#313,.F.) ;
#410=ORIENTED_EDGE('',*,*,#396,.F.) ;
#411=ORIENTED_EDGE('',*,*,#403,.T.) ;
#412=ORIENTED_EDGE('',*,*,#408,.T.) ;
#413=ORIENTED_EDGE('',*,*,#336,.F.) ;
#422=ORIENTED_EDGE('',*,*,#408,.F.) ;
#423=ORIENTED_EDGE('',*,*,#420,.T.) ;
#424=ORIENTED_EDGE('',*,*,#396,.T.) ;
#425=ORIENTED_EDGE('',*,*,#331,.F.) ;
#462=ORIENTED_EDGE('',*,*,#441,.F.) ;
#463=ORIENTED_EDGE('',*,*,#448,.F.) ;
#464=ORIENTED_EDGE('',*,*,#455,.F.) ;
#465=ORIENTED_EDGE('',*,*,#460,.F.) ;
#505=ORIENTED_EDGE('',*,*,#479,.T.) ;
#506=ORIENTED_EDGE('',*,*,#486,.T.) ;
#507=ORIENTED_EDGE('',*,*,#493,.T.) ;
#508=ORIENTED_EDGE('',*,*,#498,.T.) ;
#509=ORIENTED_EDGE('',*,*,#460,.T.) ;
#510=ORIENTED_EDGE('',*,*,#503,.T.) ;
#511=ORIENTED_EDGE('',*,*,#286,.T.) ;
#512=ORIENTED_EDGE('',*,*,#272,.F.) ;
#529=ORIENTED_EDGE('',*,*,#522,.F.) ;
#530=ORIENTED_EDGE('',*,*,#527,.F.) ;
#566=ORIENTED_EDGE('',*,*,#541,.T.) ;
#567=ORIENTED_EDGE('',*,*,#448,.T.) ;
#568=ORIENTED_EDGE('',*,*,#548,.F.) ;
#569=ORIENTED_EDGE('',*,*,#554,.T.) ;
#570=ORIENTED_EDGE('',*,*,#560,.T.) ;
#571=ORIENTED_EDGE('',*,*,#564,.T.) ;
#572=ORIENTED_EDGE('',*,*,#139,.T.) ;
#573=ORIENTED_EDGE('',*,*,#84,.T.) ;
#590=ORIENTED_EDGE('',*,*,#583,.F.) ;
#591=ORIENTED_EDGE('',*,*,#588,.F.) ;
#605=ORIENTED_EDGE('',*,*,#441,.T.) ;
#606=ORIENTED_EDGE('',*,*,#498,.F.) ;
#607=ORIENTED_EDGE('',*,*,#603,.F.) ;
#608=ORIENTED_EDGE('',*,*,#548,.T.) ;
#636=ORIENTED_EDGE('',*,*,#622,.F.) ;
#637=ORIENTED_EDGE('',*,*,#629,.T.) ;
#638=ORIENTED_EDGE('',*,*,#634,.T.) ;
#639=ORIENTED_EDGE('',*,*,#486,.F.) ;
#674=ORIENTED_EDGE('',*,*,#655,.T.) ;
#675=ORIENTED_EDGE('',*,*,#662,.T.) ;
#676=ORIENTED_EDGE('',*,*,#667,.T.) ;
#677=ORIENTED_EDGE('',*,*,#554,.F.) ;
#678=ORIENTED_EDGE('',*,*,#603,.T.) ;
#679=ORIENTED_EDGE('',*,*,#493,.F.) ;
#680=ORIENTED_EDGE('',*,*,#634,.F.) ;
#681=ORIENTED_EDGE('',*,*,#672,.T.) ;
#709=ORIENTED_EDGE('',*,*,#695,.F.) ;
#710=ORIENTED_EDGE('',*,*,#702,.F.) ;
#711=ORIENTED_EDGE('',*,*,#707,.T.) ;
#712=ORIENTED_EDGE('',*,*,#522,.T.) ;
#721=ORIENTED_EDGE('',*,*,#707,.F.) ;
#722=ORIENTED_EDGE('',*,*,#719,.F.) ;
#723=ORIENTED_EDGE('',*,*,#695,.T.) ;
#724=ORIENTED_EDGE('',*,*,#527,.T.) ;
#740=ORIENTED_EDGE('',*,*,#667,.F.) ;
#741=ORIENTED_EDGE('',*,*,#733,.T.) ;
#742=ORIENTED_EDGE('',*,*,#738,.T.) ;
#743=ORIENTED_EDGE('',*,*,#560,.F.) ;
#766=ORIENTED_EDGE('',*,*,#752,.T.) ;
#767=ORIENTED_EDGE('',*,*,#759,.F.) ;
#768=ORIENTED_EDGE('',*,*,#764,.F.) ;
#769=ORIENTED_EDGE('',*,*,#583,.T.) ;
#778=ORIENTED_EDGE('',*,*,#764,.T.) ;
#779=ORIENTED_EDGE('',*,*,#776,.F.) ;
#780=ORIENTED_EDGE('',*,*,#752,.F.) ;
#781=ORIENTED_EDGE('',*,*,#588,.T.) ;
#809=ORIENTED_EDGE('',*,*,#267,.T.) ;
#810=ORIENTED_EDGE('',*,*,#795,.T.) ;
#811=ORIENTED_EDGE('',*,*,#802,.F.) ;
#812=ORIENTED_EDGE('',*,*,#807,.T.) ;
#813=ORIENTED_EDGE('',*,*,#622,.T.) ;
#814=ORIENTED_EDGE('',*,*,#479,.F.) ;
#817=ORIENTED_EDGE('',*,*,#377,.F.) ;
#818=ORIENTED_EDGE('',*,*,#360,.F.) ;
#821=ORIENTED_EDGE('',*,*,#420,.F.) ;
#822=ORIENTED_EDGE('',*,*,#403,.F.) ;
#860=ORIENTED_EDGE('',*,*,#293,.T.) ;
#861=ORIENTED_EDGE('',*,*,#503,.F.) ;
#862=ORIENTED_EDGE('',*,*,#455,.T.) ;
#863=ORIENTED_EDGE('',*,*,#541,.F.) ;
#864=ORIENTED_EDGE('',*,*,#79,.T.) ;
#865=ORIENTED_EDGE('',*,*,#836,.F.) ;
#866=ORIENTED_EDGE('',*,*,#843,.F.) ;
#867=ORIENTED_EDGE('',*,*,#848,.T.) ;
#868=ORIENTED_EDGE('',*,*,#655,.F.) ;
#869=ORIENTED_EDGE('',*,*,#853,.T.) ;
#870=ORIENTED_EDGE('',*,*,#802,.T.) ;
#871=ORIENTED_EDGE('',*,*,#858,.T.) ;
#885=ORIENTED_EDGE('',*,*,#843,.T.) ;
#886=ORIENTED_EDGE('',*,*,#878,.T.) ;
#887=ORIENTED_EDGE('',*,*,#146,.T.) ;
#888=ORIENTED_EDGE('',*,*,#564,.F.) ;
#889=ORIENTED_EDGE('',*,*,#738,.F.) ;
#890=ORIENTED_EDGE('',*,*,#883,.T.) ;
#893=ORIENTED_EDGE('',*,*,#237,.F.) ;
#894=ORIENTED_EDGE('',*,*,#220,.F.) ;
#897=ORIENTED_EDGE('',*,*,#177,.F.) ;
#898=ORIENTED_EDGE('',*,*,#194,.F.) ;
#907=ORIENTED_EDGE('',*,*,#72,.T.) ;
#908=ORIENTED_EDGE('',*,*,#151,.F.) ;
#909=ORIENTED_EDGE('',*,*,#878,.F.) ;
#910=ORIENTED_EDGE('',*,*,#836,.T.) ;
#919=ORIENTED_EDGE('',*,*,#298,.T.) ;
#920=ORIENTED_EDGE('',*,*,#858,.F.) ;
#921=ORIENTED_EDGE('',*,*,#795,.F.) ;
#922=ORIENTED_EDGE('',*,*,#260,.T.) ;
#931=ORIENTED_EDGE('',*,*,#853,.F.) ;
#932=ORIENTED_EDGE('',*,*,#672,.F.) ;
#933=ORIENTED_EDGE('',*,*,#629,.F.) ;
#934=ORIENTED_EDGE('',*,*,#807,.F.) ;
#937=ORIENTED_EDGE('',*,*,#719,.T.) ;
#938=ORIENTED_EDGE('',*,*,#702,.T.) ;
#947=ORIENTED_EDGE('',*,*,#883,.F.) ;
#948=ORIENTED_EDGE('',*,*,#733,.F.) ;
#949=ORIENTED_EDGE('',*,*,#662,.F.) ;
#950=ORIENTED_EDGE('',*,*,#848,.F.) ;
#953=ORIENTED_EDGE('',*,*,#776,.T.) ;
#954=ORIENTED_EDGE('',*,*,#759,.T.) ;
#108=FACE_BOUND('',#105,.T.) ;
#126=FACE_BOUND('',#123,.T.) ;
#322=FACE_BOUND('',#319,.T.) ;
#340=FACE_BOUND('',#337,.T.) ;
#531=FACE_BOUND('',#528,.T.) ;
#592=FACE_BOUND('',#589,.T.) ;
#819=FACE_BOUND('',#816,.T.) ;
#823=FACE_BOUND('',#820,.T.) ;
#895=FACE_BOUND('',#892,.T.) ;
#899=FACE_BOUND('',#896,.T.) ;
#939=FACE_BOUND('',#936,.T.) ;
#955=FACE_BOUND('',#952,.T.) ;
#51=CLOSED_SHELL('Closed Shell',(#127,#158,#189,#201,#232,#244,#279,#341,#372,#384,#415,#427,#467,#532,#593,#610,#641,#683,#714,#726,#745,#771,#783,#824,#873,#900,#912,#924,#940,#956)) ;
#59=VECTOR('Line Direction',#58,1.) ;
#68=VECTOR('Line Direction',#67,1.) ;
#75=VECTOR('Line Direction',#74,1.) ;
#82=VECTOR('Line Direction',#81,1.) ;
#135=VECTOR('Line Direction',#134,1.) ;
#142=VECTOR('Line Direction',#141,1.) ;
#149=VECTOR('Line Direction',#148,1.) ;
#166=VECTOR('Line Direction',#165,1.) ;
#180=VECTOR('Line Direction',#179,1.) ;
#209=VECTOR('Line Direction',#208,1.) ;
#223=VECTOR('Line Direction',#222,1.) ;
#247=VECTOR('Line Direction',#246,1.) ;
#256=VECTOR('Line Direction',#255,1.) ;
#263=VECTOR('Line Direction',#262,1.) ;
#270=VECTOR('Line Direction',#269,1.) ;
#282=VECTOR('Line Direction',#281,1.) ;
#289=VECTOR('Line Direction',#288,1.) ;
#296=VECTOR('Line Direction',#295,1.) ;
#349=VECTOR('Line Direction',#348,1.) ;
#363=VECTOR('Line Direction',#362,1.) ;
#392=VECTOR('Line Direction',#391,1.) ;
#406=VECTOR('Line Direction',#405,1.) ;
#435=VECTOR('Line Direction',#434,1.) ;
#444=VECTOR('Line Direction',#443,1.) ;
#451=VECTOR('Line Direction',#450,1.) ;
#458=VECTOR('Line Direction',#457,1.) ;
#475=VECTOR('Line Direction',#474,1.) ;
#482=VECTOR('Line Direction',#481,1.) ;
#489=VECTOR('Line Direction',#488,1.) ;
#496=VECTOR('Line Direction',#495,1.) ;
#501=VECTOR('Line Direction',#500,1.) ;
#544=VECTOR('Line Direction',#543,1.) ;
#601=VECTOR('Line Direction',#600,1.) ;
#618=VECTOR('Line Direction',#617,1.) ;
#625=VECTOR('Line Direction',#624,1.) ;
#632=VECTOR('Line Direction',#631,1.) ;
#649=VECTOR('Line Direction',#648,1.) ;
#658=VECTOR('Line Direction',#657,1.) ;
#665=VECTOR('Line Direction',#664,1.) ;
#670=VECTOR('Line Direction',#669,1.) ;
#691=VECTOR('Line Direction',#690,1.) ;
#705=VECTOR('Line Direction',#704,1.) ;
#729=VECTOR('Line Direction',#728,1.) ;
#736=VECTOR('Line Direction',#735,1.) ;
#748=VECTOR('Line Direction',#747,1.) ;
#762=VECTOR('Line Direction',#761,1.) ;
#791=VECTOR('Line Direction',#790,1.) ;
#798=VECTOR('Line Direction',#797,1.) ;
#805=VECTOR('Line Direction',#804,1.) ;
#832=VECTOR('Line Direction',#831,1.) ;
#839=VECTOR('Line Direction',#838,1.) ;
#846=VECTOR('Line Direction',#845,1.) ;
#851=VECTOR('Line Direction',#850,1.) ;
#856=VECTOR('Line Direction',#855,1.) ;
#876=VECTOR('Line Direction',#875,1.) ;
#881=VECTOR('Line Direction',#880,1.) ;
#958=ADVANCED_BREP_SHAPE_REPRESENTATION('NONE',(#957),#46) ;
#49=SHAPE_REPRESENTATION(' ',(#48),#46) ;
#127=ADVANCED_FACE('',(#90,#108,#126),#56,.F.) ;
#158=ADVANCED_FACE('',(#157),#132,.T.) ;
#189=ADVANCED_FACE('',(#188),#163,.F.) ;
#201=ADVANCED_FACE('',(#200),#163,.F.) ;
#232=ADVANCED_FACE('',(#231),#206,.F.) ;
#244=ADVANCED_FACE('',(#243),#206,.F.) ;
#279=ADVANCED_FACE('',(#278),#132,.T.) ;
#341=ADVANCED_FACE('',(#304,#322,#340),#56,.F.) ;
#372=ADVANCED_FACE('',(#371),#346,.F.) ;
#384=ADVANCED_FACE('',(#383),#346,.F.) ;
#415=ADVANCED_FACE('',(#414),#389,.F.) ;
#427=ADVANCED_FACE('',(#426),#389,.F.) ;
#467=ADVANCED_FACE('',(#466),#432,.F.) ;
#532=ADVANCED_FACE('',(#513,#531),#472,.T.) ;
#593=ADVANCED_FACE('',(#574,#592),#537,.T.) ;
#610=ADVANCED_FACE('',(#609),#598,.T.) ;
#641=ADVANCED_FACE('',(#640),#615,.T.) ;
#683=ADVANCED_FACE('',(#682),#646,.T.) ;
#714=ADVANCED_FACE('',(#713),#688,.F.) ;
#726=ADVANCED_FACE('',(#725),#688,.F.) ;
#745=ADVANCED_FACE('',(#744),#615,.T.) ;
#771=ADVANCED_FACE('',(#770),#688,.F.) ;
#783=ADVANCED_FACE('',(#782),#688,.F.) ;
#824=ADVANCED_FACE('',(#815,#819,#823),#788,.T.) ;
#873=ADVANCED_FACE('',(#872),#829,.T.) ;
#900=ADVANCED_FACE('',(#891,#895,#899),#788,.T.) ;
#912=ADVANCED_FACE('',(#911),#905,.F.) ;
#924=ADVANCED_FACE('',(#923),#917,.T.) ;
#940=ADVANCED_FACE('',(#935,#939),#929,.F.) ;
#956=ADVANCED_FACE('',(#951,#955),#945,.F.) ;
#4=APPLICATION_PROTOCOL_DEFINITION('international standard','config_control_design',1994,#1) ;
#32=APPROVAL_DATE_TIME(#13,#21) ;
#538=B_SPLINE_CURVE_WITH_KNOTS('',1,(#539,#540),.UNSPECIFIED.,.F.,.U.,(2,2),(8.,92.),.UNSPECIFIED.) ;
#549=B_SPLINE_CURVE_WITH_KNOTS('',1,(#550,#551),.UNSPECIFIED.,.F.,.U.,(2,2),(0.,175.),.UNSPECIFIED.) ;
#555=B_SPLINE_CURVE_WITH_KNOTS('',1,(#556,#557),.UNSPECIFIED.,.F.,.U.,(2,2),(0.,100.),.UNSPECIFIED.) ;
#561=B_SPLINE_CURVE_WITH_KNOTS('',1,(#562,#563),.UNSPECIFIED.,.F.,.U.,(2,2),(70.,275.),.UNSPECIFIED.) ;
#957=MANIFOLD_SOLID_BREP('PartBody',#51) ;
#11=CALENDAR_DATE(2020,29,4) ;
#30=CC_DESIGN_APPROVAL(#21,(#16,#6,#14)) ;
#18=CC_DESIGN_DATE_AND_TIME_ASSIGNMENT(#13,#17,(#16)) ;
#29=CC_DESIGN_DATE_AND_TIME_ASSIGNMENT(#13,#28,(#14)) ;
#17=DATE_TIME_ROLE('classification_date') ;
#28=DATE_TIME_ROLE('creation_date') ;
#27=CC_DESIGN_PERSON_AND_ORGANIZATION_ASSIGNMENT(#25,#26,(#16)) ;
#33=CC_DESIGN_PERSON_AND_ORGANIZATION_ASSIGNMENT(#25,#34,(#6)) ;
#35=CC_DESIGN_PERSON_AND_ORGANIZATION_ASSIGNMENT(#25,#36,(#6,#14)) ;
#37=CC_DESIGN_PERSON_AND_ORGANIZATION_ASSIGNMENT(#25,#38,(#5)) ;
#26=PERSON_AND_ORGANIZATION_ROLE('classification_officer') ;
#34=PERSON_AND_ORGANIZATION_ROLE('design_supplier') ;
#36=PERSON_AND_ORGANIZATION_ROLE('creator') ;
#38=PERSON_AND_ORGANIZATION_ROLE('design_owner') ;
#39=CC_DESIGN_SECURITY_CLASSIFICATION(#16,(#6)) ;
#94=CIRCLE('generated circle',#93,7.) ;
#103=CIRCLE('generated circle',#102,7.) ;
#112=CIRCLE('generated circle',#111,7.) ;
#121=CIRCLE('generated circle',#120,7.) ;
#174=CIRCLE('generated circle',#173,7.) ;
#193=CIRCLE('generated circle',#192,7.) ;
#217=CIRCLE('generated circle',#216,7.) ;
#236=CIRCLE('generated circle',#235,7.) ;
#308=CIRCLE('generated circle',#307,7.) ;
#317=CIRCLE('generated circle',#316,7.) ;
#326=CIRCLE('generated circle',#325,7.) ;
#335=CIRCLE('generated circle',#334,7.) ;
#357=CIRCLE('generated circle',#356,7.) ;
#376=CIRCLE('generated circle',#375,7.) ;
#400=CIRCLE('generated circle',#399,7.) ;
#419=CIRCLE('generated circle',#418,7.) ;
#517=CIRCLE('generated circle',#516,25.) ;
#526=CIRCLE('generated circle',#525,25.) ;
#578=CIRCLE('generated circle',#577,25.) ;
#587=CIRCLE('generated circle',#586,25.) ;
#699=CIRCLE('generated circle',#698,25.) ;
#718=CIRCLE('generated circle',#717,25.) ;
#756=CIRCLE('generated circle',#755,25.) ;
#775=CIRCLE('generated circle',#774,25.) ;
#959=SHAPE_REPRESENTATION_RELATIONSHIP(' ',' ',#49,#958) ;
#163=CYLINDRICAL_SURFACE('generated cylinder',#162,7.) ;
#206=CYLINDRICAL_SURFACE('generated cylinder',#205,7.) ;
#346=CYLINDRICAL_SURFACE('generated cylinder',#345,7.) ;
#389=CYLINDRICAL_SURFACE('generated cylinder',#388,7.) ;
#688=CYLINDRICAL_SURFACE('generated cylinder',#687,25.) ;
#3=DESIGN_CONTEXT(' ',#1,'design') ;
#65=EDGE_CURVE('',#62,#64,#60,.F.) ;
#72=EDGE_CURVE('',#71,#62,#69,.T.) ;
#79=EDGE_CURVE('',#78,#71,#76,.F.) ;
#84=EDGE_CURVE('',#64,#78,#83,.T.) ;
#99=EDGE_CURVE('',#96,#98,#94,.T.) ;
#104=EDGE_CURVE('',#98,#96,#103,.T.) ;
#117=EDGE_CURVE('',#114,#116,#112,.T.) ;
#122=EDGE_CURVE('',#116,#114,#121,.T.) ;
#139=EDGE_CURVE('',#138,#64,#136,.T.) ;
#146=EDGE_CURVE('',#145,#138,#143,.F.) ;
#151=EDGE_CURVE('',#145,#62,#150,.T.) ;
#170=EDGE_CURVE('',#169,#98,#167,.F.) ;
#177=EDGE_CURVE('',#169,#176,#174,.T.) ;
#182=EDGE_CURVE('',#176,#96,#181,.F.) ;
#194=EDGE_CURVE('',#176,#169,#193,.T.) ;
#213=EDGE_CURVE('',#212,#116,#210,.F.) ;
#220=EDGE_CURVE('',#212,#219,#217,.T.) ;
#225=EDGE_CURVE('',#219,#114,#224,.F.) ;
#237=EDGE_CURVE('',#219,#212,#236,.T.) ;
#253=EDGE_CURVE('',#250,#252,#248,.F.) ;
#260=EDGE_CURVE('',#259,#252,#257,.T.) ;
#267=EDGE_CURVE('',#266,#259,#264,.F.) ;
#272=EDGE_CURVE('',#266,#250,#271,.T.) ;
#286=EDGE_CURVE('',#285,#250,#283,.T.) ;
#293=EDGE_CURVE('',#292,#285,#290,.F.) ;
#298=EDGE_CURVE('',#252,#292,#297,.F.) ;
#313=EDGE_CURVE('',#310,#312,#308,.T.) ;
#318=EDGE_CURVE('',#312,#310,#317,.T.) ;
#331=EDGE_CURVE('',#328,#330,#326,.T.) ;
#336=EDGE_CURVE('',#330,#328,#335,.T.) ;
#353=EDGE_CURVE('',#352,#312,#350,.F.) ;
#360=EDGE_CURVE('',#352,#359,#357,.T.) ;
#365=EDGE_CURVE('',#359,#310,#364,.F.) ;
#377=EDGE_CURVE('',#359,#352,#376,.T.) ;
#396=EDGE_CURVE('',#395,#330,#393,.F.) ;
#403=EDGE_CURVE('',#395,#402,#400,.T.) ;
#408=EDGE_CURVE('',#402,#328,#407,.F.) ;
#420=EDGE_CURVE('',#402,#395,#419,.T.) ;
#441=EDGE_CURVE('',#438,#440,#436,.F.) ;
#448=EDGE_CURVE('',#447,#438,#445,.T.) ;
#455=EDGE_CURVE('',#454,#447,#452,.F.) ;
#460=EDGE_CURVE('',#440,#454,#459,.T.) ;
#479=EDGE_CURVE('',#266,#478,#476,.T.) ;
#486=EDGE_CURVE('',#478,#485,#483,.T.) ;
#493=EDGE_CURVE('',#485,#492,#490,.T.) ;
#498=EDGE_CURVE('',#492,#440,#497,.T.) ;
#503=EDGE_CURVE('',#454,#285,#502,.T.) ;
#522=EDGE_CURVE('',#519,#521,#517,.T.) ;
#527=EDGE_CURVE('',#521,#519,#526,.T.) ;
#541=EDGE_CURVE('',#78,#447,#538,.F.) ;
#548=EDGE_CURVE('',#547,#438,#545,.T.) ;
#554=EDGE_CURVE('',#547,#553,#549,.F.) ;
#560=EDGE_CURVE('',#553,#559,#555,.F.) ;
#564=EDGE_CURVE('',#559,#138,#561,.F.) ;
#583=EDGE_CURVE('',#580,#582,#578,.T.) ;
#588=EDGE_CURVE('',#582,#580,#587,.T.) ;
#603=EDGE_CURVE('',#547,#492,#602,.F.) ;
#622=EDGE_CURVE('',#621,#478,#619,.T.) ;
#629=EDGE_CURVE('',#621,#628,#626,.T.) ;
#634=EDGE_CURVE('',#628,#485,#633,.T.) ;
#655=EDGE_CURVE('',#652,#654,#650,.T.) ;
#662=EDGE_CURVE('',#654,#661,#659,.F.) ;
#667=EDGE_CURVE('',#661,#553,#666,.T.) ;
#672=EDGE_CURVE('',#628,#652,#671,.T.) ;
#695=EDGE_CURVE('',#694,#521,#692,.F.) ;
#702=EDGE_CURVE('',#701,#694,#699,.F.) ;
#707=EDGE_CURVE('',#701,#519,#706,.F.) ;
#719=EDGE_CURVE('',#694,#701,#718,.F.) ;
#733=EDGE_CURVE('',#661,#732,#730,.F.) ;
#738=EDGE_CURVE('',#732,#559,#737,.T.) ;
#752=EDGE_CURVE('',#582,#751,#749,.F.) ;
#759=EDGE_CURVE('',#758,#751,#756,.T.) ;
#764=EDGE_CURVE('',#580,#758,#763,.F.) ;
#776=EDGE_CURVE('',#751,#758,#775,.T.) ;
#795=EDGE_CURVE('',#259,#794,#792,.F.) ;
#802=EDGE_CURVE('',#801,#794,#799,.T.) ;
#807=EDGE_CURVE('',#801,#621,#806,.T.) ;
#836=EDGE_CURVE('',#835,#71,#833,.T.) ;
#843=EDGE_CURVE('',#842,#835,#840,.T.) ;
#848=EDGE_CURVE('',#842,#654,#847,.F.) ;
#853=EDGE_CURVE('',#652,#801,#852,.T.) ;
#858=EDGE_CURVE('',#794,#292,#857,.T.) ;
#878=EDGE_CURVE('',#835,#145,#877,.T.) ;
#883=EDGE_CURVE('',#732,#842,#882,.F.) ;
#85=EDGE_LOOP('',(#86,#87,#88,#89)) ;
#105=EDGE_LOOP('',(#106,#107)) ;
#123=EDGE_LOOP('',(#124,#125)) ;
#152=EDGE_LOOP('',(#153,#154,#155,#156)) ;
#183=EDGE_LOOP('',(#184,#185,#186,#187)) ;
#195=EDGE_LOOP('',(#196,#197,#198,#199)) ;
#226=EDGE_LOOP('',(#227,#228,#229,#230)) ;
#238=EDGE_LOOP('',(#239,#240,#241,#242)) ;
#273=EDGE_LOOP('',(#274,#275,#276,#277)) ;
#299=EDGE_LOOP('',(#300,#301,#302,#303)) ;
#319=EDGE_LOOP('',(#320,#321)) ;
#337=EDGE_LOOP('',(#338,#339)) ;
#366=EDGE_LOOP('',(#367,#368,#369,#370)) ;
#378=EDGE_LOOP('',(#379,#380,#381,#382)) ;
#409=EDGE_LOOP('',(#410,#411,#412,#413)) ;
#421=EDGE_LOOP('',(#422,#423,#424,#425)) ;
#461=EDGE_LOOP('',(#462,#463,#464,#465)) ;
#504=EDGE_LOOP('',(#505,#506,#507,#508,#509,#510,#511,#512)) ;
#528=EDGE_LOOP('',(#529,#530)) ;
#565=EDGE_LOOP('',(#566,#567,#568,#569,#570,#571,#572,#573)) ;
#589=EDGE_LOOP('',(#590,#591)) ;
#604=EDGE_LOOP('',(#605,#606,#607,#608)) ;
#635=EDGE_LOOP('',(#636,#637,#638,#639)) ;
#673=EDGE_LOOP('',(#674,#675,#676,#677,#678,#679,#680,#681)) ;
#708=EDGE_LOOP('',(#709,#710,#711,#712)) ;
#720=EDGE_LOOP('',(#721,#722,#723,#724)) ;
#739=EDGE_LOOP('',(#740,#741,#742,#743)) ;
#765=EDGE_LOOP('',(#766,#767,#768,#769)) ;
#777=EDGE_LOOP('',(#778,#779,#780,#781)) ;
#808=EDGE_LOOP('',(#809,#810,#811,#812,#813,#814)) ;
#816=EDGE_LOOP('',(#817,#818)) ;
#820=EDGE_LOOP('',(#821,#822)) ;
#859=EDGE_LOOP('',(#860,#861,#862,#863,#864,#865,#866,#867,#868,#869,#870,#871)) ;
#884=EDGE_LOOP('',(#885,#886,#887,#888,#889,#890)) ;
#892=EDGE_LOOP('',(#893,#894)) ;
#896=EDGE_LOOP('',(#897,#898)) ;
#906=EDGE_LOOP('',(#907,#908,#909,#910)) ;
#918=EDGE_LOOP('',(#919,#920,#921,#922)) ;
#930=EDGE_LOOP('',(#931,#932,#933,#934)) ;
#936=EDGE_LOOP('',(#937,#938)) ;
#946=EDGE_LOOP('',(#947,#948,#949,#950)) ;
#952=EDGE_LOOP('',(#953,#954)) ;
#90=FACE_OUTER_BOUND('',#85,.T.) ;
#157=FACE_OUTER_BOUND('',#152,.T.) ;
#188=FACE_OUTER_BOUND('',#183,.T.) ;
#200=FACE_OUTER_BOUND('',#195,.T.) ;
#231=FACE_OUTER_BOUND('',#226,.T.) ;
#243=FACE_OUTER_BOUND('',#238,.T.) ;
#278=FACE_OUTER_BOUND('',#273,.T.) ;
#304=FACE_OUTER_BOUND('',#299,.T.) ;
#371=FACE_OUTER_BOUND('',#366,.T.) ;
#383=FACE_OUTER_BOUND('',#378,.T.) ;
#414=FACE_OUTER_BOUND('',#409,.T.) ;
#426=FACE_OUTER_BOUND('',#421,.T.) ;
#466=FACE_OUTER_BOUND('',#461,.T.) ;
#513=FACE_OUTER_BOUND('',#504,.T.) ;
#574=FACE_OUTER_BOUND('',#565,.T.) ;
#609=FACE_OUTER_BOUND('',#604,.T.) ;
#640=FACE_OUTER_BOUND('',#635,.T.) ;
#682=FACE_OUTER_BOUND('',#673,.T.) ;
#713=FACE_OUTER_BOUND('',#708,.T.) ;
#725=FACE_OUTER_BOUND('',#720,.T.) ;
#744=FACE_OUTER_BOUND('',#739,.T.) ;
#770=FACE_OUTER_BOUND('',#765,.T.) ;
#782=FACE_OUTER_BOUND('',#777,.T.) ;
#815=FACE_OUTER_BOUND('',#808,.T.) ;
#872=FACE_OUTER_BOUND('',#859,.T.) ;
#891=FACE_OUTER_BOUND('',#884,.T.) ;
#911=FACE_OUTER_BOUND('',#906,.T.) ;
#923=FACE_OUTER_BOUND('',#918,.T.) ;
#935=FACE_OUTER_BOUND('',#930,.T.) ;
#951=FACE_OUTER_BOUND('',#946,.T.) ;
#45=UNCERTAINTY_MEASURE_WITH_UNIT(LENGTH_MEASURE(0.005),#41,'distance_accuracy_value','CONFUSED CURVE UNCERTAINTY') ;
#60=LINE('Line',#57,#59) ;
#69=LINE('Line',#66,#68) ;
#76=LINE('Line',#73,#75) ;
#83=LINE('Line',#80,#82) ;
#136=LINE('Line',#133,#135) ;
#143=LINE('Line',#140,#142) ;
#150=LINE('Line',#147,#149) ;
#167=LINE('Line',#164,#166) ;
#181=LINE('Line',#178,#180) ;
#210=LINE('Line',#207,#209) ;
#224=LINE('Line',#221,#223) ;
#248=LINE('Line',#245,#247) ;
#257=LINE('Line',#254,#256) ;
#264=LINE('Line',#261,#263) ;
#271=LINE('Line',#268,#270) ;
#283=LINE('Line',#280,#282) ;
#290=LINE('Line',#287,#289) ;
#297=LINE('Line',#294,#296) ;
#350=LINE('Line',#347,#349) ;
#364=LINE('Line',#361,#363) ;
#393=LINE('Line',#390,#392) ;
#407=LINE('Line',#404,#406) ;
#436=LINE('Line',#433,#435) ;
#445=LINE('Line',#442,#444) ;
#452=LINE('Line',#449,#451) ;
#459=LINE('Line',#456,#458) ;
#476=LINE('Line',#473,#475) ;
#483=LINE('Line',#480,#482) ;
#490=LINE('Line',#487,#489) ;
#497=LINE('Line',#494,#496) ;
#502=LINE('Line',#499,#501) ;
#545=LINE('Line',#542,#544) ;
#602=LINE('Line',#599,#601) ;
#619=LINE('Line',#616,#618) ;
#626=LINE('Line',#623,#625) ;
#633=LINE('Line',#630,#632) ;
#650=LINE('Line',#647,#649) ;
#659=LINE('Line',#656,#658) ;
#666=LINE('Line',#663,#665) ;
#671=LINE('Line',#668,#670) ;
#692=LINE('Line',#689,#691) ;
#706=LINE('Line',#703,#705) ;
#730=LINE('Line',#727,#729) ;
#737=LINE('Line',#734,#736) ;
#749=LINE('Line',#746,#748) ;
#763=LINE('Line',#760,#762) ;
#792=LINE('Line',#789,#791) ;
#799=LINE('Line',#796,#798) ;
#806=LINE('Line',#803,#805) ;
#833=LINE('Line',#830,#832) ;
#840=LINE('Line',#837,#839) ;
#847=LINE('Line',#844,#846) ;
#852=LINE('Line',#849,#851) ;
#857=LINE('Line',#854,#856) ;
#877=LINE('Line',#874,#876) ;
#882=LINE('Line',#879,#881) ;
#2=MECHANICAL_CONTEXT(' ',#1,'mechanical') ;
#24=PERSONAL_ADDRESS(' ',' ',' ',' ',' ',' ',' ',' ',' ',' ',' ',' ',(#22),' ') ;
#56=PLANE('Plane',#55) ;
#132=PLANE('Plane',#131) ;
#432=PLANE('Plane',#431) ;
#472=PLANE('Plane',#471) ;
#537=PLANE('Plane',#536) ;
#598=PLANE('Plane',#597) ;
#615=PLANE('Plane',#614) ;
#646=PLANE('Plane',#645) ;
#788=PLANE('Plane',#787) ;
#829=PLANE('Plane',#828) ;
#905=PLANE('Plane',#904) ;
#917=PLANE('Plane',#916) ;
#929=PLANE('Plane',#928) ;
#945=PLANE('Plane',#944) ;
#43=PLANE_ANGLE_MEASURE_WITH_UNIT(PLANE_ANGLE_MEASURE(0.0174532925199),#42) ;
#7=PRODUCT_CATEGORY('part',$) ;
#9=PRODUCT_CATEGORY_RELATIONSHIP(' ',' ',#7,#8) ;
#6=PRODUCT_DEFINITION_FORMATION_WITH_SPECIFIED_SOURCE('',' ',#5,.NOT_KNOWN.) ;
#8=PRODUCT_RELATED_PRODUCT_CATEGORY('detail',$,(#5)) ;
#50=SHAPE_DEFINITION_REPRESENTATION(#40,#49) ;
#62=VERTEX_POINT('',#61) ;
#64=VERTEX_POINT('',#63) ;
#71=VERTEX_POINT('',#70) ;
#78=VERTEX_POINT('',#77) ;
#96=VERTEX_POINT('',#95) ;
#98=VERTEX_POINT('',#97) ;
#114=VERTEX_POINT('',#113) ;
#116=VERTEX_POINT('',#115) ;
#138=VERTEX_POINT('',#137) ;
#145=VERTEX_POINT('',#144) ;
#169=VERTEX_POINT('',#168) ;
#176=VERTEX_POINT('',#175) ;
#212=VERTEX_POINT('',#211) ;
#219=VERTEX_POINT('',#218) ;
#250=VERTEX_POINT('',#249) ;
#252=VERTEX_POINT('',#251) ;
#259=VERTEX_POINT('',#258) ;
#266=VERTEX_POINT('',#265) ;
#285=VERTEX_POINT('',#284) ;
#292=VERTEX_POINT('',#291) ;
#310=VERTEX_POINT('',#309) ;
#312=VERTEX_POINT('',#311) ;
#328=VERTEX_POINT('',#327) ;
#330=VERTEX_POINT('',#329) ;
#352=VERTEX_POINT('',#351) ;
#359=VERTEX_POINT('',#358) ;
#395=VERTEX_POINT('',#394) ;
#402=VERTEX_POINT('',#401) ;
#438=VERTEX_POINT('',#437) ;
#440=VERTEX_POINT('',#439) ;
#447=VERTEX_POINT('',#446) ;
#454=VERTEX_POINT('',#453) ;
#478=VERTEX_POINT('',#477) ;
#485=VERTEX_POINT('',#484) ;
#492=VERTEX_POINT('',#491) ;
#519=VERTEX_POINT('',#518) ;
#521=VERTEX_POINT('',#520) ;
#547=VERTEX_POINT('',#546) ;
#553=VERTEX_POINT('',#552) ;
#559=VERTEX_POINT('',#558) ;
#580=VERTEX_POINT('',#579) ;
#582=VERTEX_POINT('',#581) ;
#621=VERTEX_POINT('',#620) ;
#628=VERTEX_POINT('',#627) ;
#652=VERTEX_POINT('',#651) ;
#654=VERTEX_POINT('',#653) ;
#661=VERTEX_POINT('',#660) ;
#694=VERTEX_POINT('',#693) ;
#701=VERTEX_POINT('',#700) ;
#732=VERTEX_POINT('',#731) ;
#751=VERTEX_POINT('',#750) ;
#758=VERTEX_POINT('',#757) ;
#794=VERTEX_POINT('',#793) ;
#801=VERTEX_POINT('',#800) ;
#835=VERTEX_POINT('',#834) ;
#842=VERTEX_POINT('',#841) ;
#41=(LENGTH_UNIT()NAMED_UNIT(*)SI_UNIT(.MILLI.,.METRE.)) ;
#42=(NAMED_UNIT(*)PLANE_ANGLE_UNIT()SI_UNIT($,.RADIAN.)) ;
#44=(NAMED_UNIT(*)SI_UNIT($,.STERADIAN.)SOLID_ANGLE_UNIT()) ;
#46=(GEOMETRIC_REPRESENTATION_CONTEXT(3)GLOBAL_UNCERTAINTY_ASSIGNED_CONTEXT((#45))GLOBAL_UNIT_ASSIGNED_CONTEXT((#41,#42,#44))REPRESENTATION_CONTEXT(' ',' ')) ;
ENDSEC;
END-ISO-10303-21;
